…
Let's conclude with a statement made in the WSJ story:

> More than 2,300 providers earned $500,000 or more from Medicare in 2012 from a single procedure or service, according to a Wall Street Journal analysis of Medicare physician-payment data made public for the first time in April.

**q6** How many individual providers earned $500,000 or more from a single procedure?

``` r
wsj %>% 
  filter(total_medicare_payment_amt >= 500000)
```

    ## # A tibble: 2,371 x 29
    ##    NPI      NPPES_PROVIDER_LAST_OR… NPPES_PROVIDER_FIRST… NPPES_PROVIDER_…
    ##    <chr>    <chr>                   <chr>                 <chr>           
    ##  1 1003807… LUNIN                   SCOTT                 D               
    ##  2 1003807… LUNIN                   SCOTT                 D               
    ##  3 1003816… ORLICK                  MARTIN                E               
    ##  4 1003860… SALAHUDDIN              NAVEED                <NA>            
    ##  5 1003861… TABANDEH                HOMAYOUN              <NA>            
    ##  6 1003869… MCGUIRE                 JOHN                  R               
    ##  7 1003875… SCHOEPPNER              GABRIELLE             <NA>            
    ##  8 1003877… SIGMAN                  JUNE                  D               
    ##  9 1003885… CHO                     SHELDON               K               
    ## 10 1003910… STEIDL                  SCOTT                 M               
    ## # ... with 2,361 more rows, and 25 more variables:
    ## #   NPPES_CREDENTIALS <chr>, NPPES_PROVIDER_GENDER <chr>,
    ## #   NPPES_ENTITY_CODE <chr>, NPPES_PROVIDER_STREET1 <chr>,
    ## #   NPPES_PROVIDER_STREET2 <chr>, NPPES_PROVIDER_CITY <chr>,
    ## #   NPPES_PROVIDER_ZIP <chr>, NPPES_PROVIDER_STATE <chr>,
    ## #   NPPES_PROVIDER_COUNTRY <chr>, PROVIDER_TYPE <chr>,
    ## #   MEDICARE_PARTICIPATION_INDICATOR <chr>, PLACE_OF_SERVICE <chr>,
    ## #   HCPCS_CODE <chr>, HCPCS_DESCRIPTION <chr>, HCPCS_DRUG_INDICATOR <chr>,
    ## #   LINE_SRVC_CNT <dbl>, BENE_UNIQUE_CNT <int>, BENE_DAY_SRVC_CNT <int>,
    ## #   AVERAGE_MEDICARE_ALLOWED_AMT <dbl>, STDEV_MEDICARE_ALLOWED_AMT <dbl>,
    ## #   AVERAGE_SUBMITTED_CHRG_AMT <dbl>, STDEV_SUBMITTED_CHRG_AMT <dbl>,
    ## #   AVERAGE_MEDICARE_PAYMENT_AMT <dbl>, STDEV_MEDICARE_PAYMENT_AMT <dbl>,
    ## #   total_medicare_payment_amt <dbl>

``` r
wsj %>% 
  filter(total_medicare_payment_amt >= 500000) %>%
  distinct(NPPES_PROVIDER_LAST_ORG_NAME, NPPES_PROVIDER_FIRST_NAME, NPI, .keep_all = TRUE)
```

    ## # A tibble: 1,999 x 29
    ##    NPI      NPPES_PROVIDER_LAST_OR… NPPES_PROVIDER_FIRST… NPPES_PROVIDER_…
    ##    <chr>    <chr>                   <chr>                 <chr>           
    ##  1 1003807… LUNIN                   SCOTT                 D               
    ##  2 1003816… ORLICK                  MARTIN                E               
    ##  3 1003860… SALAHUDDIN              NAVEED                <NA>            
    ##  4 1003861… TABANDEH                HOMAYOUN              <NA>            
    ##  5 1003869… MCGUIRE                 JOHN                  R               
    ##  6 1003875… SCHOEPPNER              GABRIELLE             <NA>            
    ##  7 1003877… SIGMAN                  JUNE                  D               
    ##  8 1003885… CHO                     SHELDON               K               
    ##  9 1003910… STEIDL                  SCOTT                 M               
    ## 10 1003914… WONG                    TIEN                  <NA>            
    ## # ... with 1,989 more rows, and 25 more variables:
    ## #   NPPES_CREDENTIALS <chr>, NPPES_PROVIDER_GENDER <chr>,
    ## #   NPPES_ENTITY_CODE <chr>, NPPES_PROVIDER_STREET1 <chr>,
    ## #   NPPES_PROVIDER_STREET2 <chr>, NPPES_PROVIDER_CITY <chr>,
    ## #   NPPES_PROVIDER_ZIP <chr>, NPPES_PROVIDER_STATE <chr>,
    ## #   NPPES_PROVIDER_COUNTRY <chr>, PROVIDER_TYPE <chr>,
    ## #   MEDICARE_PARTICIPATION_INDICATOR <chr>, PLACE_OF_SERVICE <chr>,
    ## #   HCPCS_CODE <chr>, HCPCS_DESCRIPTION <chr>, HCPCS_DRUG_INDICATOR <chr>,
    ## #   LINE_SRVC_CNT <dbl>, BENE_UNIQUE_CNT <int>, BENE_DAY_SRVC_CNT <int>,
…
