…
<img src="challenge_files/figure-markdown_github/q1-1.png" width="100%" />

``` r
# Print results
if (exists("q1")) q1
```

    ## # A tibble: 200 x 9
    ##    gnd   pctile   count hh_inc hh_inc_age40 le_agg le_raceadj sd_le_agg
    ##    <chr>  <int>   <int>  <dbl>        <dbl>  <dbl>      <dbl>     <dbl>
    ##  1 F          1 7098335    433          383   78.5       78.8    0.0525
    ##  2 F          2 7120033   1919         1682   80.3       80.5    0.0562
    ##  3 F          3 7131115   3718         3344   81.0       81.2    0.0569
    ##  4 F          4 7135812   5467         5052   81.4       81.5    0.0581
    ##  5 F          5 7140055   7089         6672   81.5       81.6    0.0582
    ##  6 F          6 7141666   8570         8166   81.6       81.7    0.0628
    ##  7 F          7 7144768   9891         9425   81.6       81.7    0.0626
    ##  8 F          8 7146577  11142        10573   81.7       81.8    0.0629
    ##  9 F          9 7146867  12368        11747   81.7       81.7    0.0657
    ## 10 F         10 7149543  13526        12807   81.7       81.8    0.0651
    ## # ... with 190 more rows, and 1 more variable: sd_le_raceadj <dbl>
…
