…
Below we will be creating models for each combination of `clarity`, `color`, and `cut`. Let's first look at how many diamonds there are for each combination.

**q3.1** How many possible combinations of `clarity`, `color`, and `cut` are there?

280

**q3.2** How many actual combinations of `clarity`, `color`, and `cut` are there?

``` r
df %>%
  count(clarity, color, cut)
```

    ## # A tibble: 276 x 4
    ##    clarity color cut           n
    ##    <ord>   <ord> <ord>     <int>
    ##  1 I1      J     Fair         15
    ##  2 I1      J     Good          4
    ##  3 I1      J     Very Good     7
    ##  4 I1      J     Premium      11
    ##  5 I1      J     Ideal         1
    ##  6 I1      I     Fair         32
    ##  7 I1      I     Good          8
    ##  8 I1      I     Very Good     6
    ##  9 I1      I     Premium      20
    ## 10 I1      I     Ideal        16
    ## # ... with 266 more rows
…
